[
  {
    "title": "Pink",
    "description": "description",
    "color": "#ffb6c1",
    "categories": "Design",
    "tags": [
      "pink",
      "and"
    ],
    "id": "63148b66-a01d-49a3-bc4c-edf7d5f8d408"
  },
  {
    "title": "Note",
    "description": "Description",
    "color": "#1abc9c",
    "categories": "Games",
    "tags": [
      "da",
      "la-la"
    ],
    "id": "1735e17c-5b6a-43bb-b90d-bc36e3aaa60c"
  },
  {
    "title": "xcc",
    "description": "cvcx",
    "color": "#9b59b6",
    "categories": "Technology",
    "tags": [
      "vxcv",
      "cxvxc",
      "cxvxc",
      "cxvxc"
    ],
    "id": "fec0e5b8-91d6-4f1a-b93d-c0be9b0be9a5"
  }
]